<svg width="18" height="18" viewBox="0 0 18 18" fill="none" xmlns="http://www.w3.org/2000/svg">
<path d="M15.0201 15.3324L13.8287 5.70424C13.7872 5.37175 13.6258 5.06582 13.3748 4.8439C13.1238 4.62199 12.8003 4.49936 12.4653 4.49904H11.3076V3.43295C11.3076 3.12987 11.2479 2.82975 11.1319 2.54974C11.0159 2.26972 10.8459 2.0153 10.6316 1.80098C10.4173 1.58667 10.1629 1.41667 9.88284 1.30068C9.60283 1.1847 9.30271 1.125 8.99963 1.125C8.69654 1.125 8.39643 1.1847 8.11641 1.30068C7.8364 1.41667 7.58197 1.58667 7.36766 1.80098C7.15335 2.0153 6.98334 2.26972 6.86736 2.54974C6.75137 2.82975 6.69168 3.12987 6.69168 3.43295V4.49904H5.53399C5.19895 4.49935 4.87554 4.62196 4.6245 4.84385C4.37346 5.06574 4.21205 5.37163 4.17059 5.7041L2.97912 15.3325C2.95525 15.5257 2.9727 15.7217 3.0303 15.9077C3.08791 16.0936 3.18436 16.2651 3.31326 16.411C3.44217 16.5568 3.60059 16.6736 3.77803 16.7536C3.95547 16.8336 4.14788 16.875 4.34252 16.875H13.6567C13.8514 16.875 14.0438 16.8336 14.2213 16.7536C14.3987 16.6736 14.5571 16.5568 14.686 16.4109C14.8149 16.2651 14.9114 16.0935 14.969 15.9076C15.0266 15.7216 15.044 15.5256 15.0201 15.3324ZM7.25419 3.43295C7.25419 2.97003 7.43809 2.52607 7.76542 2.19873C8.09276 1.8714 8.53672 1.6875 8.99964 1.6875C9.46256 1.6875 9.90653 1.8714 10.2339 2.19873C10.5612 2.52607 10.7451 2.97003 10.7451 3.43295V4.49904H7.25419V3.43295ZM14.2646 16.0385C14.1884 16.1246 14.0949 16.1936 13.9901 16.2408C13.8853 16.2881 13.7717 16.3125 13.6567 16.3125H4.34252C4.22758 16.3125 4.11394 16.288 4.00915 16.2408C3.90435 16.1936 3.81079 16.1246 3.73466 16.0385C3.65852 15.9524 3.60155 15.851 3.56751 15.7412C3.53348 15.6315 3.52315 15.5157 3.53723 15.4016L4.72869 5.77318C4.75325 5.57684 4.8486 5.39622 4.99687 5.26519C5.14514 5.13417 5.33612 5.06175 5.53399 5.06154H12.4653C12.6632 5.06176 12.8542 5.13419 13.0024 5.26524C13.1507 5.3963 13.246 5.57695 13.2706 5.77331L14.462 15.4015C14.476 15.5156 14.4656 15.6314 14.4316 15.7412C14.3976 15.851 14.3406 15.9523 14.2646 16.0385Z" fill="#6D6D6D"/>
<path d="M11.0261 6.1377C10.9891 6.13769 10.9525 6.14495 10.9184 6.15908C10.8843 6.17322 10.8533 6.19393 10.8272 6.22005C10.801 6.24617 10.7803 6.27718 10.7662 6.3113C10.7521 6.34543 10.7448 6.38201 10.7448 6.41895V7.76628C10.7448 7.9955 10.6997 8.22247 10.6119 8.43424C10.5242 8.646 10.3957 8.83842 10.2336 9.0005C10.0715 9.16258 9.87908 9.29115 9.66731 9.37887C9.45555 9.46659 9.22857 9.51173 8.99936 9.51173C8.77014 9.51173 8.54317 9.46659 8.3314 9.37887C8.11963 9.29115 7.92722 9.16258 7.76514 9.0005C7.60306 8.83842 7.47449 8.646 7.38677 8.43424C7.29905 8.22247 7.25391 7.9955 7.25391 7.76628V6.41895C7.25391 6.34435 7.22427 6.27282 7.17153 6.22007C7.11879 6.16733 7.04725 6.1377 6.97266 6.1377C6.89806 6.1377 6.82653 6.16733 6.77378 6.22007C6.72104 6.27282 6.69141 6.34435 6.69141 6.41895V7.76628C6.69141 8.06937 6.7511 8.36948 6.86709 8.6495C6.98307 8.92951 7.15308 9.18394 7.36739 9.39825C7.5817 9.61256 7.83613 9.78257 8.11614 9.89855C8.39616 10.0145 8.69627 10.0742 8.99936 10.0742C9.30244 10.0742 9.60256 10.0145 9.88257 9.89855C10.1626 9.78257 10.417 9.61256 10.6313 9.39825C10.8456 9.18394 11.0156 8.92951 11.1316 8.6495C11.2476 8.36948 11.3073 8.06937 11.3073 7.76628V6.41895C11.3073 6.38201 11.3001 6.34543 11.2859 6.3113C11.2718 6.27718 11.2511 6.24617 11.225 6.22005C11.1988 6.19393 11.1678 6.17322 11.1337 6.15908C11.0996 6.14495 11.063 6.13769 11.0261 6.1377Z" fill="#6D6D6D"/>
</svg>
