<svg width="13" height="13" viewBox="0 0 13 13" fill="none" xmlns="http://www.w3.org/2000/svg">
<g clip-path="url(#clip0_6742_2261)">
<path d="M8.92054 3.90153V1.65565C8.92054 0.742775 8.17776 0 7.26479 0H1.65555C0.742676 0 0 0.742775 0 1.65565V5.40622C0 6.18817 0.544807 6.84515 1.27469 7.01773V7.95589C1.27469 8.10992 1.36752 8.24878 1.50985 8.30779C1.55696 8.32733 1.60645 8.33675 1.65555 8.33675C1.75463 8.33675 1.85203 8.29807 1.92493 8.22517L3.08813 7.06197H3.31784V6.31889C3.31784 4.98589 4.4022 3.90153 5.73511 3.90153H8.92054Z" fill="#251605"/>
<path d="M11.3439 4.66309H5.73465C4.82178 4.66309 4.0791 5.40576 4.0791 6.31873V10.0693C4.0791 10.9823 4.82178 11.725 5.73465 11.725H9.91131L11.0745 12.8883C11.1474 12.9612 11.2448 12.9998 11.344 12.9998C11.393 12.9998 11.4425 12.9904 11.4896 12.9709C11.6319 12.9119 11.7248 12.773 11.7248 12.619V11.6808C12.4547 11.5083 12.9995 10.8513 12.9995 10.0693V6.31873C12.9995 5.40576 12.2568 4.66309 11.3439 4.66309ZM10.1608 7.56188L8.35782 9.36481C8.28343 9.4392 8.18594 9.4763 8.08854 9.4763C7.99104 9.4763 7.89355 9.4392 7.81926 9.36481L6.91769 8.46335C6.76892 8.31467 6.76892 8.07346 6.91769 7.92469C7.06637 7.77602 7.30758 7.77602 7.45625 7.92469L8.08854 8.55688L9.62209 7.02322C9.77087 6.87455 10.012 6.87455 10.1608 7.02322C10.3095 7.172 10.3095 7.41321 10.1608 7.56188Z" fill="#251605"/>
</g>
<defs>
<clipPath id="clip0_6742_2261">
<rect width="13" height="13" fill="white"/>
</clipPath>
</defs>
</svg>
