<svg width="74" height="114" viewBox="0 0 74 114" fill="none" xmlns="http://www.w3.org/2000/svg">
<path d="M79 1L59.0171 15.7044C54.7236 18.8637 51.1676 22.918 48.595 27.5868V27.5868C42.6072 38.4536 42.4972 51.6058 48.3024 62.5713L50.4896 66.7026C51.8218 69.219 52.7561 71.9266 53.2591 74.7292V74.7292C54.9608 84.2102 51.6 93.9046 44.3251 100.218C40.0517 103.927 35.9922 107.406 34 109C31.4218 111.063 26.0739 115.59 21.3036 119.664C16.9751 123.36 14.5 128.773 14.5 134.465V134.465C14.5 138.397 13.3152 142.238 11.1002 145.486L8.44528 149.38C7.48306 150.792 6.41837 152.13 5.25982 153.385L1 158" stroke="white" stroke-width="2"/>
</svg>
